{
  "public": {

  },

  "private": {
    "stripeKey": "",
    "wave": {
      "endpoint": "",
      "apiKey": ""
    },
    "ucc": {
      "endpoint": "",
      "siteGroup": "",
      "accountPrefix": "",
      "credentials": {
        "userName": "",
        "password": ""
      }
    }
  }
}
